{
  "count": 1325,
  "next": "https://ion.tjhsst.edu/api/activities?format=json&page=2",
  "previous": null,
  "results": [
    {
      "id": 2766,
      "aid": "2766",
      "url": "https://ion.tjhsst.edu/api/activities/2766",
      "name": "Math 3 Tutoring (Ero)"
    },
    {
      "id": 19,
      "aid": "19",
      "url": "https://ion.tjhsst.edu/api/activities/19",
      "name": "FBLA  Field Trip "
    },
    {
      "id": 202,
      "aid": "202",
      "url": "https://ion.tjhsst.edu/api/activities/202",
      "name": "Math Team Competition"
    },
    {
      "id": 210,
      "aid": "210",
      "url": "https://ion.tjhsst.edu/api/activities/210",
      "name": "Research Statistics (Lampazzi)"
    },
    {
      "id": 242,
      "aid": "242",
      "url": "https://ion.tjhsst.edu/api/activities/242",
      "name": "Lab T19 (all CS students)"
    },
    {
      "id": 284,
      "aid": "284",
      "url": "https://ion.tjhsst.edu/api/activities/284",
      "name": "Drama Production Crew"
    },
    {
      "id": 332,
      "aid": "332",
      "url": "https://ion.tjhsst.edu/api/activities/332",
      "name": "Japan Bowl "
    },
    {
      "id": 334,
      "aid": "334",
      "url": "https://ion.tjhsst.edu/api/activities/334",
      "name": "Japanese Tutoring/Makeups"
    },
    {
      "id": 116,
      "aid": "116",
      "url": "https://ion.tjhsst.edu/api/activities/116",
      "name": "Lab 207: Robotics (DelaCuesta)"
    },
    {
      "id": 101,
      "aid": "101",
      "url": "https://ion.tjhsst.edu/api/activities/101",
      "name": "Lab 7: Optics Sr Research"
    },
    {
      "id": 103,
      "aid": "103",
      "url": "https://ion.tjhsst.edu/api/activities/103",
      "name": "Lab 3: Chemical Analysis"
    },
    {
      "id": 1001,
      "aid": "1001",
      "url": "https://ion.tjhsst.edu/api/activities/1001",
      "name": "z-out of the building"
    },
    {
      "id": 158,
      "aid": "158",
      "url": "https://ion.tjhsst.edu/api/activities/158",
      "name": "Chem.Tutoring/Makeups (Jones)"
    },
    {
      "id": 117,
      "aid": "117",
      "url": "https://ion.tjhsst.edu/api/activities/117",
      "name": "Lab 8: Prototyping Lab"
    },
    {
      "id": 143,
      "aid": "143",
      "url": "https://ion.tjhsst.edu/api/activities/143",
      "name": "Physics Tutoring/Makeups (Scholla)"
    },
    {
      "id": 144,
      "aid": "144",
      "url": "https://ion.tjhsst.edu/api/activities/144",
      "name": "Physics Tutoring/Makeup (Forbes)"
    },
    {
      "id": 231,
      "aid": "231",
      "url": "https://ion.tjhsst.edu/api/activities/231",
      "name": "Lab T23 (all CS students )"
    },
    {
      "id": 241,
      "aid": "241",
      "url": "https://ion.tjhsst.edu/api/activities/241",
      "name": "Math/CS Makeup"
    },
    {
      "id": 261,
      "aid": "261",
      "url": "https://ion.tjhsst.edu/api/activities/261",
      "name": "Lab T27 (all CS students)"
    },
    {
      "id": 115,
      "aid": "115",
      "url": "https://ion.tjhsst.edu/api/activities/115",
      "name": "Lab 200 -Computer Systems "
    },
    {
      "id": 66,
      "aid": "66",
      "url": "https://ion.tjhsst.edu/api/activities/66",
      "name": "z-Early Release Waiver"
    },
    {
      "id": 141,
      "aid": "141",
      "url": "https://ion.tjhsst.edu/api/activities/141",
      "name": "Physics Tutoring/Make-up (Hannum)"
    },
    {
      "id": 166,
      "aid": "166",
      "url": "https://ion.tjhsst.edu/api/activities/166",
      "name": "Gingerbread Body Systems by Biology Society"
    },
    {
      "id": 3013,
      "aid": "3013",
      "url": "https://ion.tjhsst.edu/api/activities/3013",
      "name": "Minecraft Club"
    },
    {
      "id": 154,
      "aid": "154",
      "url": "https://ion.tjhsst.edu/api/activities/154",
      "name": "Chem. Tutoring/Makeups (Chhabra)"
    },
    {
      "id": 156,
      "aid": "156",
      "url": "https://ion.tjhsst.edu/api/activities/156",
      "name": "Chem. Tutoring/Makeups (Taylor)"
    },
    {
      "id": 195,
      "aid": "195",
      "url": "https://ion.tjhsst.edu/api/activities/195",
      "name": "Biology Society"
    },
    {
      "id": 200,
      "aid": "200",
      "url": "https://ion.tjhsst.edu/api/activities/200",
      "name": "Math Teams (V & JV)"
    },
    {
      "id": 203,
      "aid": "203",
      "url": "https://ion.tjhsst.edu/api/activities/203",
      "name": "Computer Team (Freshman)"
    },
    {
      "id": 157,
      "aid": "157",
      "url": "https://ion.tjhsst.edu/api/activities/157",
      "name": "IBET Study Hall (Holman students ONLY) "
    },
    {
      "id": 707,
      "aid": "707",
      "url": "https://ion.tjhsst.edu/api/activities/707",
      "name": "English 10 (Seavey)"
    },
    {
      "id": 214,
      "aid": "214",
      "url": "https://ion.tjhsst.edu/api/activities/214",
      "name": "Pre-Calc / Math 3 Tutoring (Coffey)"
    },
    {
      "id": 216,
      "aid": "216",
      "url": "https://ion.tjhsst.edu/api/activities/216",
      "name": "Lab T15 (Open Computer Lab)"
    },
    {
      "id": 233,
      "aid": "233",
      "url": "https://ion.tjhsst.edu/api/activities/233",
      "name": "Lab T31 (all CS students)"
    },
    {
      "id": 918,
      "aid": "918",
      "url": "https://ion.tjhsst.edu/api/activities/918",
      "name": "Career  Center-Governor's School Testing"
    },
    {
      "id": 3012,
      "aid": "3012",
      "url": "https://ion.tjhsst.edu/api/activities/3012",
      "name": "Mental Wellness Guest Speaker"
    },
    {
      "id": 681,
      "aid": "681",
      "url": "https://ion.tjhsst.edu/api/activities/681",
      "name": "NHS Service Opportunity  "
    },
    {
      "id": 933,
      "aid": "933",
      "url": "https://ion.tjhsst.edu/api/activities/933",
      "name": "English Lit  AP Test Prep"
    },
    {
      "id": 281,
      "aid": "281",
      "url": "https://ion.tjhsst.edu/api/activities/281",
      "name": "Shakespeare Troupe"
    },
    {
      "id": 2444,
      "aid": "2444",
      "url": "https://ion.tjhsst.edu/api/activities/2444",
      "name": "UNICEF "
    },
    {
      "id": 160,
      "aid": "160",
      "url": "https://ion.tjhsst.edu/api/activities/160",
      "name": "Cultivators of the Earth"
    },
    {
      "id": 929,
      "aid": "929",
      "url": "https://ion.tjhsst.edu/api/activities/929",
      "name": "SOL Makeups"
    },
    {
      "id": 315,
      "aid": "315",
      "url": "https://ion.tjhsst.edu/api/activities/315",
      "name": "French  AP (Delfosse)"
    },
    {
      "id": 318,
      "aid": "318",
      "url": "https://ion.tjhsst.edu/api/activities/318",
      "name": "French Tutoring (Van de Kamp)"
    },
    {
      "id": 324,
      "aid": "324",
      "url": "https://ion.tjhsst.edu/api/activities/324",
      "name": "German - Stammtisch"
    },
    {
      "id": 371,
      "aid": "371",
      "url": "https://ion.tjhsst.edu/api/activities/371",
      "name": "Pre-Calc Consults/Tutoring"
    },
    {
      "id": 330,
      "aid": "330",
      "url": "https://ion.tjhsst.edu/api/activities/330",
      "name": "Japanese National Honor Society"
    },
    {
      "id": 335,
      "aid": "335",
      "url": "https://ion.tjhsst.edu/api/activities/335",
      "name": "Latin Honor Society"
    },
    {
      "id": 111,
      "aid": "111",
      "url": "https://ion.tjhsst.edu/api/activities/111",
      "name": "Lab 202 - Web/Mobile Lab Make-ups"
    },
    {
      "id": 336,
      "aid": "336",
      "url": "https://ion.tjhsst.edu/api/activities/336",
      "name": "Latin Club"
    }
  ]
}