{
  "count": 196,
  "next": "https://ion.tjhsst.edu/api/blocks?format=json&page=2",
  "previous": null,
  "results": [
    {
      "id": 2810,
      "url": "https://ion.tjhsst.edu/api/blocks/2810",
      "date": "2015-06-01",
      "block_letter": "A",
      "locked": false
    },
    {
      "id": 2811,
      "url": "https://ion.tjhsst.edu/api/blocks/2811",
      "date": "2015-06-01",
      "block_letter": "B",
      "locked": false
    },
    {
      "id": 3000,
      "url": "https://ion.tjhsst.edu/api/blocks/3000",
      "date": "2015-06-01",
      "block_letter": "DstribTest",
      "locked": false
    },
    {
      "id": 2812,
      "url": "https://ion.tjhsst.edu/api/blocks/2812",
      "date": "2015-06-03",
      "block_letter": "A",
      "locked": false
    },
    {
      "id": 2813,
      "url": "https://ion.tjhsst.edu/api/blocks/2813",
      "date": "2015-06-03",
      "block_letter": "B",
      "locked": false
    },
    {
      "id": 2830,
      "url": "https://ion.tjhsst.edu/api/blocks/2830",
      "date": "2015-06-05",
      "block_letter": "A",
      "locked": false
    },
    {
      "id": 2831,
      "url": "https://ion.tjhsst.edu/api/blocks/2831",
      "date": "2015-06-05",
      "block_letter": "B",
      "locked": false
    },
    {
      "id": 2815,
      "url": "https://ion.tjhsst.edu/api/blocks/2815",
      "date": "2015-06-08",
      "block_letter": "A",
      "locked": true
    },
    {
      "id": 2999,
      "url": "https://ion.tjhsst.edu/api/blocks/2999",
      "date": "2015-06-08",
      "block_letter": "B",
      "locked": true
    },
    {
      "id": 2828,
      "url": "https://ion.tjhsst.edu/api/blocks/2828",
      "date": "2015-06-10",
      "block_letter": "A",
      "locked": true
    },
    {
      "id": 2816,
      "url": "https://ion.tjhsst.edu/api/blocks/2816",
      "date": "2015-06-10",
      "block_letter": "B",
      "locked": false
    },
    {
      "id": 3003,
      "url": "https://ion.tjhsst.edu/api/blocks/3003",
      "date": "2015-06-15",
      "block_letter": "A",
      "locked": false
    },
    {
      "id": 3004,
      "url": "https://ion.tjhsst.edu/api/blocks/3004",
      "date": "2015-06-15",
      "block_letter": "B",
      "locked": false
    },
    {
      "id": 3005,
      "url": "https://ion.tjhsst.edu/api/blocks/3005",
      "date": "2015-06-15",
      "block_letter": "C",
      "locked": false
    },
    {
      "id": 3006,
      "url": "https://ion.tjhsst.edu/api/blocks/3006",
      "date": "2015-06-15",
      "block_letter": "D",
      "locked": false
    },
    {
      "id": 3007,
      "url": "https://ion.tjhsst.edu/api/blocks/3007",
      "date": "2015-06-15",
      "block_letter": "E",
      "locked": false
    },
    {
      "id": 3008,
      "url": "https://ion.tjhsst.edu/api/blocks/3008",
      "date": "2015-06-15",
      "block_letter": "F",
      "locked": false
    },
    {
      "id": 3009,
      "url": "https://ion.tjhsst.edu/api/blocks/3009",
      "date": "2015-06-15",
      "block_letter": "G",
      "locked": false
    },
    {
      "id": 3010,
      "url": "https://ion.tjhsst.edu/api/blocks/3010",
      "date": "2015-06-15",
      "block_letter": "H",
      "locked": false
    },
    {
      "id": 2818,
      "url": "https://ion.tjhsst.edu/api/blocks/2818",
      "date": "2015-06-17",
      "block_letter": "A",
      "locked": true
    },
    {
      "id": 2819,
      "url": "https://ion.tjhsst.edu/api/blocks/2819",
      "date": "2015-06-17",
      "block_letter": "B",
      "locked": false
    },
    {
      "id": 3011,
      "url": "https://ion.tjhsst.edu/api/blocks/3011",
      "date": "2015-06-19",
      "block_letter": "D",
      "locked": false
    },
    {
      "id": 3012,
      "url": "https://ion.tjhsst.edu/api/blocks/3012",
      "date": "2015-06-19",
      "block_letter": "E",
      "locked": false
    },
    {
      "id": 3013,
      "url": "https://ion.tjhsst.edu/api/blocks/3013",
      "date": "2015-06-19",
      "block_letter": "F",
      "locked": false
    },
    {
      "id": 2821,
      "url": "https://ion.tjhsst.edu/api/blocks/2821",
      "date": "2015-06-20",
      "block_letter": "A",
      "locked": false
    },
    {
      "id": 2820,
      "url": "https://ion.tjhsst.edu/api/blocks/2820",
      "date": "2015-06-20",
      "block_letter": "B",
      "locked": false
    },
    {
      "id": 2822,
      "url": "https://ion.tjhsst.edu/api/blocks/2822",
      "date": "2015-06-22",
      "block_letter": "B",
      "locked": false
    },
    {
      "id": 2823,
      "url": "https://ion.tjhsst.edu/api/blocks/2823",
      "date": "2015-06-24",
      "block_letter": "A",
      "locked": false
    },
    {
      "id": 2824,
      "url": "https://ion.tjhsst.edu/api/blocks/2824",
      "date": "2015-06-24",
      "block_letter": "B",
      "locked": false
    },
    {
      "id": 2825,
      "url": "https://ion.tjhsst.edu/api/blocks/2825",
      "date": "2015-06-26",
      "block_letter": "A",
      "locked": false
    },
    {
      "id": 2826,
      "url": "https://ion.tjhsst.edu/api/blocks/2826",
      "date": "2015-06-26",
      "block_letter": "B",
      "locked": false
    },
    {
      "id": 2829,
      "url": "https://ion.tjhsst.edu/api/blocks/2829",
      "date": "2015-06-29",
      "block_letter": "B",
      "locked": false
    },
    {
      "id": 2793,
      "url": "https://ion.tjhsst.edu/api/blocks/2793",
      "date": "2015-09-02",
      "block_letter": "A",
      "locked": true
    },
    {
      "id": 2794,
      "url": "https://ion.tjhsst.edu/api/blocks/2794",
      "date": "2015-09-02",
      "block_letter": "B",
      "locked": true
    },
    {
      "id": 2795,
      "url": "https://ion.tjhsst.edu/api/blocks/2795",
      "date": "2015-09-04",
      "block_letter": "A",
      "locked": false
    },
    {
      "id": 2797,
      "url": "https://ion.tjhsst.edu/api/blocks/2797",
      "date": "2015-09-07",
      "block_letter": "B",
      "locked": false
    },
    {
      "id": 2798,
      "url": "https://ion.tjhsst.edu/api/blocks/2798",
      "date": "2015-09-09",
      "block_letter": "A",
      "locked": false
    },
    {
      "id": 2800,
      "url": "https://ion.tjhsst.edu/api/blocks/2800",
      "date": "2015-09-11",
      "block_letter": "A",
      "locked": false
    },
    {
      "id": 2827,
      "url": "https://ion.tjhsst.edu/api/blocks/2827",
      "date": "2015-09-14",
      "block_letter": "B",
      "locked": false
    },
    {
      "id": 2805,
      "url": "https://ion.tjhsst.edu/api/blocks/2805",
      "date": "2015-09-16",
      "block_letter": "A",
      "locked": false
    },
    {
      "id": 2806,
      "url": "https://ion.tjhsst.edu/api/blocks/2806",
      "date": "2015-09-16",
      "block_letter": "B",
      "locked": false
    },
    {
      "id": 2803,
      "url": "https://ion.tjhsst.edu/api/blocks/2803",
      "date": "2015-09-18",
      "block_letter": "A",
      "locked": false
    },
    {
      "id": 2804,
      "url": "https://ion.tjhsst.edu/api/blocks/2804",
      "date": "2015-09-18",
      "block_letter": "B",
      "locked": false
    },
    {
      "id": 2807,
      "url": "https://ion.tjhsst.edu/api/blocks/2807",
      "date": "2015-09-21",
      "block_letter": "B",
      "locked": false
    },
    {
      "id": 2808,
      "url": "https://ion.tjhsst.edu/api/blocks/2808",
      "date": "2015-09-23",
      "block_letter": "A",
      "locked": false
    },
    {
      "id": 2809,
      "url": "https://ion.tjhsst.edu/api/blocks/2809",
      "date": "2015-09-23",
      "block_letter": "B",
      "locked": false
    },
    {
      "id": 2834,
      "url": "https://ion.tjhsst.edu/api/blocks/2834",
      "date": "2015-09-25",
      "block_letter": "B",
      "locked": false
    },
    {
      "id": 2835,
      "url": "https://ion.tjhsst.edu/api/blocks/2835",
      "date": "2015-11-04",
      "block_letter": "B",
      "locked": false
    },
    {
      "id": 2836,
      "url": "https://ion.tjhsst.edu/api/blocks/2836",
      "date": "2015-11-06",
      "block_letter": "A",
      "locked": false
    },
    {
      "id": 2837,
      "url": "https://ion.tjhsst.edu/api/blocks/2837",
      "date": "2015-11-06",
      "block_letter": "B",
      "locked": false
    }
  ]
}